﻿GuildA;Accuracy;TP;FP;TN;FN;TOTAL
fe reduction;98.03921569;1;0;49;1;51
fe oxidation;96.07843137;1;0;48;2;51
methanogenesis from hydrogen;96.07843137;2;2;47;0;51
nitrogen fixation;62.74509804;18;16;14;3;51
oxygenic phototrophy;98.03921569;31;0;19;1;51
sulfate reduction;100;1;0;50;0;51
sulfide oxidation;98.03921569;0;1;50;0;51