NCBI_tax;Sample;anaerobic alkane degradation;anaerobic aromatic hydrocarbon degradation;anammox;anoxygenic phototrophy;aob;arsenate reduction;cellulose degradation;dehalogenation;denitrification;dnra;fe oxidation;fe reduction;h2 oxidation;methanogenesis from acetate;methanogenesis from hydrogen;methanotroph;methylotrophic methanogenesis;nitrogen fixation;nob;oxygenic phototrophy;selenate reduction;sulfate reduction;sulfide oxidation;syntrophy;uranium reduction
65393;cyanothece_sp_pcc_7424;0;0;0;0;0;0;0;0;0;0;0;0;1;0;0;0;0;1;0;1;0;0;0;0;0
1173027;microcoleus_sp_pcc_7113;0;0;0;0;0;0;0;0;0;0;0;0;0;0;0;0;0;1;0;1;0;0;0;0;0
316279;synechococcus_sp_cc9902;0;0;0;0;0;0;0;0;0;0;0;0;0;0;0;0;0;0;0;1;0;0;0;0;0
497965;cyanothece_sp_pcc_7822;0;0;0;0;0;0;0;0;0;0;0;0;1;0;0;0;0;1;0;1;0;0;0;0;0
195253;synechococcus_sp_pcc_6312;0;0;0;0;0;0;0;0;0;0;0;0;0;0;0;0;0;0;0;1;0;0;0;0;0
84588;synechococcus_sp_wh8102;0;0;0;0;0;0;0;0;0;0;0;0;0;0;0;0;0;0;0;1;0;0;0;0;0
1229;nitrosococcus_oceani_afc132;0;0;0;0;1;0;0;0;0;0;0;0;0;0;0;0;0;0;0;0;0;0;0;0;0
314253;nitrobacter_sp_nb_311a;0;0;0;0;0;0;0;0;0;0;0;0;0;0;0;0;0;0;1;0;0;0;0;0;0
1394889;thermosynechococcus_sp_nk55a;0;0;0;0;0;0;0;0;0;0;0;0;0;0;0;0;0;0;0;1;0;0;0;0;0
371731;rhodobacter_sp_sw2;0;0;0;1;0;0;0;0;0;0;0;0;1;0;0;0;0;1;0;0;0;0;0;0;0
64471;synechococcus_sp_cc9311;0;0;0;0;0;0;0;0;0;0;0;0;0;0;0;0;0;0;0;1;0;0;0;0;0
32051;synechococcus_sp_wh7803;0;0;0;0;0;0;0;0;0;0;0;0;0;0;0;0;0;0;0;1;0;0;0;0;0
644281;methanocaldococcus_sp_fs406_22;0;0;0;0;0;0;0;0;0;0;0;0;0;0;1;0;0;1;0;0;0;0;0;0;0
111781;leptolyngbya_sp_pcc_7376;0;0;0;0;0;0;0;0;0;0;0;0;0;0;0;0;0;0;0;1;0;0;0;0;0
94122;shewanella_sp_ana_3;0;0;0;0;0;0;0;0;1;1;0;1;0;0;0;0;0;0;0;0;0;0;0;0;0
915;nitrosomonas_europaea_nm50;0;0;0;0;1;0;0;0;0;0;0;0;0;0;0;0;0;0;0;0;0;0;0;0;0
330214;nitrospira_defluvii;0;0;0;0;0;0;0;0;0;0;0;0;0;0;0;0;0;0;1;0;0;0;0;0;0
1148;synechocystis_sp_gt_s_pcc_6803;0;0;0;0;0;0;0;0;0;0;0;0;0;0;0;0;0;0;0;1;0;0;0;0;0
99598;calothrix_sp_pcc_7507;0;0;0;0;0;0;0;0;0;0;0;0;1;0;0;0;0;1;0;1;0;0;0;0;0
1173025;geitlerinema_sp_pcc_7407;0;0;0;0;0;0;0;0;0;0;0;0;0;0;0;0;0;0;0;1;0;0;0;0;0
244366;klebsiella_variicola_hkuopla;0;0;0;0;0;0;1;0;0;0;0;0;0;0;0;0;0;0;0;0;1;0;0;0;0
43989;cyanothece_sp_bh68_atcc_51142;0;0;0;0;0;0;0;0;0;0;0;0;1;0;0;0;0;1;0;1;0;0;0;0;0
916;nitrosomonas_eutropha_nm56;0;0;0;0;1;0;0;0;0;0;0;0;0;0;0;0;0;0;0;0;0;0;0;0;0
1231;nitrosospira_multiformis_nl14;0;0;0;0;1;0;0;0;0;0;0;0;0;0;0;0;0;0;0;0;0;0;0;0;0
373994;rivularia_sp_pcc_7116;0;0;0;0;0;0;0;0;0;0;0;0;0;0;0;0;0;1;0;1;0;0;0;0;0
82654;pseudanabaena_sp_pcc_7367;0;0;0;0;0;0;0;0;0;0;0;0;0;0;0;0;0;0;0;1;0;0;0;0;0
187303;methylocystis_sp_sc2;0;0;0;0;0;0;0;0;0;0;0;0;0;0;0;1;0;1;0;0;0;0;0;0;0
316278;synechococcus_sp_rcc307;0;0;0;0;0;0;0;0;0;0;0;0;0;0;0;0;0;0;0;1;0;0;0;0;0
110662;synechococcus_sp_cc9605;0;0;0;0;0;0;0;0;0;0;0;0;0;0;0;0;0;0;0;1;0;0;0;0;0
32049;synechococcus_sp_pcc_7002;0;0;0;0;0;0;0;0;0;0;0;0;0;0;0;0;0;0;0;1;0;0;0;0;0
1173263;synechococcus_sp_pcc_7502;0;0;0;0;0;0;0;0;0;0;0;0;0;0;0;0;0;0;0;1;0;0;0;0;0
933262;desulfosarcina_sp_bus5;0;0;0;0;0;0;0;0;0;0;0;0;0;0;0;0;0;0;0;0;0;1;0;0;0
321332;synechococcus_sp_ja_2_3b_a_2_13_;0;0;0;0;0;0;0;0;0;0;0;0;0;0;0;0;0;1;0;1;0;0;0;0;0
28072;nostoc_sp_pcc_7524;0;0;0;0;0;0;0;0;0;0;0;0;0;0;0;0;0;1;0;1;0;0;0;0;0
1173026;gloeocapsa_sp_pcc_7428;0;0;0;0;0;0;0;0;0;0;0;0;0;0;0;0;0;1;0;1;0;0;0;0;0
46234;anabaena_sp_90;0;0;0;0;0;0;0;0;0;0;0;0;1;0;0;0;0;1;0;1;0;0;0;0;0
166314;synechococcus_sp_wh_8109;0;0;0;0;0;0;0;0;0;0;0;0;0;0;0;0;0;0;0;1;0;0;0;0;0
395962;cyanothece_sp_pcc_8802;0;0;0;0;0;0;0;0;0;0;0;0;1;0;0;0;0;1;0;1;0;0;0;0;0
34027;azoarcus_tolulyticus_atcc_51758;0;1;0;0;0;0;0;0;1;0;0;0;0;0;0;0;0;1;0;0;0;0;0;0;0
317936;nostoc_sp_pcc_7107;0;0;0;0;0;0;0;0;0;0;0;0;1;0;0;0;0;1;0;1;0;0;0;0;0
247490;planctomycetaceae_bacterium_ksu_1;0;0;1;0;0;0;0;0;0;0;0;0;0;0;0;0;0;0;0;0;0;0;0;0;0
65093;halothece_sp_pcc_7418;0;0;0;0;0;0;0;0;0;0;0;0;0;0;0;0;0;1;0;1;0;0;0;0;0
178606;leptospirillum_ferriphilum_dsm_14647;0;0;0;0;0;0;0;0;0;0;0;0;0;0;0;0;0;0;1;0;0;0;0;0;0
103690;nostoc_sp_pcc_7120;0;0;0;0;0;0;0;0;0;0;0;0;1;0;0;0;0;1;0;1;0;0;0;0;0
321327;synechococcus_sp_ja_3_3ab;0;0;0;0;0;0;0;0;0;0;0;0;0;0;0;0;0;1;0;1;0;0;0;0;0
261292;nitrosomonas_sp_is79a3;0;0;0;0;1;0;0;0;0;0;0;0;0;0;0;0;0;0;0;0;0;0;0;0;0
395961;cyanothece_sp_pcc_7425;0;0;0;0;0;0;0;0;0;0;0;0;0;0;0;0;0;1;0;1;0;0;0;0;0
41431;cyanothece_sp_pcc_8801;0;0;0;0;0;0;0;0;0;0;0;0;1;0;0;0;0;1;0;1;0;0;0;0;0
877455;methanobacterium_lacus_al_21;0;0;0;0;0;0;0;0;0;0;0;0;0;0;1;0;0;0;0;0;0;0;0;0;0
74969;ferroplasma_acidiphilum_y;0;0;0;0;0;0;0;0;0;0;0;0;0;0;0;0;0;0;0;0;0;0;0;0;0
153948;nitrosomonas_sp_al212;0;0;0;0;1;0;0;0;0;0;0;0;0;0;0;0;0;0;0;0;0;0;0;0;0
