Domain;NCBI_taxid;Genome Name;Guild;;;;;;
Archaea;1001994;Candidatus Nitrosoarchaeum koreensis MY1;AOB;;;;;;
Archaea;859192;Candidatus Nitrosoarchaeum limnia BG20;AOB;;;;;;
Archaea;886738;Candidatus Nitrosoarchaeum limnia SFB1 (unscreened);AOB;;;;;;
Archaea;1826872;Candidatus Nitrosocosmicus exaquare G61;AOB;;;;;;
Archaea;1410606;Candidatus Nitrosopelagicus brevis CN25;AOB;;;;;;
Archaea;1229908;Candidatus Nitrosopumilus koreensis AR1;AOB;;;;;;
Archaea;859350;Candidatus Nitrosopumilus salaria BD31;AOB;;;;;;
Archaea;517606;Candidatus Nitrosopumilus sp. AR2;AOB;;;;;;
Archaea;517606;Candidatus Nitrosopumilus sp. D3C;AOB;;;;;;
Archaea;517606;Candidatus Nitrosopumilus sp. NF5;AOB;;;;;;
Archaea;1459636;Candidatus Nitrososphaera evergladensis SR1;AOB;;;;;;
Archaea;1237085;Candidatus Nitrososphaera gargensis Ga9-2;AOB;;;;;;
Archaea;436308;Nitrosopumilus maritimus SCM1;AOB;;;;;;
Archaea;1776294;Nitrosopumilus sp. Nsub;AOB;;;;;;
Archaea;1027374;Nitrosopumilus sp. SJ;AOB;;;;;;
Archaea;926571;Nitrososphaera viennensis EN76;AOB;;;;;;
Bacteria;472759;Nitrosococcus halophilus Nc4;AOB;;;;;;
Bacteria;1229;Nitrosococcus oceani AFC132;AOB;;;;;;
Bacteria;473788;Nitrosococcus oceani AFC27;AOB;;;;;;
Bacteria;323261;Nitrosococcus oceani C-107;AOB;;;;;;
Bacteria;314279;Nitrosococcus oceani C-27;AOB;;;;;;
Bacteria;105559;Nitrosococcus watsoni C-113;AOB;;;;;;
Bacteria;1231;Nitrosolobus multiformis Nl1;AOB;;;;;;
Bacteria;1231;Nitrosolobus multiformis Nl13;AOB;;;;;;
Bacteria;1231;Nitrosolobus multiformis Nl18;AOB;;;;;;
Bacteria;1231;Nitrosospira multiformis Nl4;AOB;;;;;;
Bacteria;1231;Nitrosolobus multiformis Nl7;AOB;;;;;;
Bacteria;1231;Nitrosospira multiformis Nl14;AOB;;;;;;
Bacteria;200120;Nitrosospira sp. Nl5;AOB;;;;;;
Bacteria;52441;Nitrosomonas aestuarii Nm69;AOB;;;;;;
Bacteria;44574;Nitrosomonas communis Nm110;AOB;;;;;;
Bacteria;44574;Nitrosomonas communis Nm2;AOB;;;;;;
Bacteria;44574;Nitrosomonas communis Nm44;AOB;;;;;;
Bacteria;1131553;Nitrosomonas cryotolerans ATCC 49181;AOB;;;;;;
Bacteria;44575;Nitrosomonas crytolerans Nm55;AOB;;;;;;
Bacteria;228410;Nitrosomonas europaea ATCC 19718;AOB;;;;;;
Bacteria;915;Nitrosomonas europaea Nm35;AOB;;;;;;
Bacteria;915;Nitrosomonas europaea Nm50;AOB;;;;;;
Bacteria;335283;Nitrosomonas eutropha C91;AOB;;;;;;
Bacteria;916;Nitrosomonas eutropha Nm14;AOB;;;;;;
Bacteria;916;Nitrosomonas eutropha Nm24;AOB;;;;;;
Bacteria;916;Nitrosomonas eutropha Nm38;AOB;;;;;;
Bacteria;916;Nitrosomonas eutropha Nm56;AOB;;;;;;
Bacteria;44576;Nitrosomonas halophila Nm1;AOB;;;;;;
Bacteria;917;Nitrosomonas marina Nm22;AOB;;;;;;
Bacteria;917;Nitrosomonas marina Nm71;AOB;;;;;;
Bacteria;52442;Nitrosomonas nitrosa Nm146;AOB;;;;;;
Bacteria;42354;Nitrosomonas oligotropha Nm75;AOB;;;;;;
Bacteria;42354;Nitrosomonas oligotropha Nm76;AOB;;;;;;
Bacteria;133724;Nitrosomonas sp. 33 Nm33;AOB;;;;;;
Bacteria;1881053;Nitrosomonas sp. 41 Nm132;AOB;;;;;;
Bacteria;200126;Nitrosomonas sp. 41 Nm58;AOB;;;;;;
Bacteria;133720;Nitrosomonas sp. 51 Nm51;AOB;;;;;;
Bacteria;153948;Nitrosomonas sp. AL212;AOB;;;;;;
Bacteria;261292;Nitrosomonas sp. IS79A3;AOB;;;;;;
Bacteria;1881054;Nitrosomonas sp. Nm166;AOB;;;;;;
Bacteria;1881055;Nitrosomonas sp. Nm34;AOB;;;;;;
Bacteria;44577;Nitrosomonas ureae Nm10;AOB;;;;;;
Bacteria;44577;Nitrosomonas ureae Nm13;AOB;;;;;;
Bacteria;44577;Nitrosomonas ureae Nm9;AOB;;;;;;
Bacteria;1266925;Nitrosospira briensis C-128;AOB;;;;;;
Bacteria;35799;Nitrosospira briensis Nsp10;AOB;;;;;;
Bacteria;35799;Nitrosospira briensis Nsp8;AOB;;;;;;
Bacteria;323848;Nitrosospira multiformis ATCC 25196;AOB;;;;;;
Bacteria;136547;Nitrosospira sp. 1 Nsp1;AOB;;;;;;
Bacteria;35798;Nitrosospira sp. 1 Nsp11;AOB;;;;;;
Bacteria;136547;Nitrosospira sp. 1 Nsp18;AOB;;;;;;
Bacteria;136547;Nitrosospira sp. 17 Nsp14;AOB;;;;;;
Bacteria;1855332;Nitrosospira sp. 5 Nsp13;AOB;;;;;;
Bacteria;1288494;Nitrosospira sp. APG3;AOB;;;;;;
Bacteria;58133;Nitrosospira sp. NpAV;AOB;;;;;;
Bacteria;1855340;Nitrosovibrio sp. 12 Nv6;AOB;;;;;;
Bacteria;1855339;Nitrosovibrio sp. Nv17;AOB;;;;;;
Bacteria;1233;Nitrosovibrio tenuis Nv1;AOB;;;;;;
Bacteria;330214;Nitrospira defluvii;NOB;;;;;;
Bacteria;1715989;Candidatus Nitrospira inopinata ENR4;NOB;AOB;;;;;
Bacteria;1742973;Candidatus Nitrospira nitrificans COMA2;NOB;AOB;;;;;
Bacteria;1742972;Candidatus Nitrospira nitrosa COMA1;NOB;AOB;;;;;
Bacteria;314229;Nitrospira marina Nb-295;NOB;;;;;;
Bacteria;42253;Nitrospira moscoviensis NSP M-1;NOB;H2 oxidation;;;;;
Bacteria;314253;Nitrobacter sp. Nb-311A;NOB;;;;;;
Bacteria;323098;Nitrobacter winogradskyi Nb-255;NOB;;;;;;
Bacteria;1266370;Nitrospina gracilis 3/211;NOB;;;;;;
Bacteria;1131269;Nitrospina sp. AB-629-B18 - v2 (unscreened);NOB;;;;;;
Bacteria;913337;Nitrospina sp. SCGC AAA288-L16 (unscreened);NOB;;;;;;
Bacteria;314278;Nitrococcus mobilis Nb-231;NOB;;;;;;
Bacteria;1230345;Candidatus Kuenenia stuttgartiensis RU1;Anammox;;;;;;
Bacteria;247490;Planctomycetaceae bacterium KSU-1;Anammox;;;;;;
Bacteria;1230344;Candidatus Kuenenia stuttgartiensis CH1;Anammox;;;;;;
Bacteria;174633;Candidatus Kuenenia stuttgartiensis;Anammox;;;;;;
Bacteria;380242;Candidatus Brocadia fulgida Brocadia fulgida enrichment bioreactor;Anammox;;;;;;
Bacteria;1197129;Candidatus Brocadia sinica JPN1;Anammox;;;;;;
Archaea;867904;Methanomethylovorans hollandica DSM 15978;methylotrophic methanogenesis;;;;;;
Archaea;1236689;Candidatus Methanomethylophilus Alvus Mx1201;methylotrophic methanogenesis;;;;;;
Archaea;259564;Methanococcoides burtonii DSM 6242;methylotrophic methanogenesis;;;;;;
Archaea;2226;Methanococcoides methylutens DSM 2657;methylotrophic methanogenesis;;;;;;
Archaea;1434104;Methanococcoides methylutens MM1;methylotrophic methanogenesis;;;;;;
Archaea;1353158;Methanococcoides vulcani SLH  33;methylotrophic methanogenesis;;;;;;
Archaea;1175296;Methanomassiliicoccus luminyensis B10;methylotrophic methanogenesis;nitrogen fixation;;;;;
Bacteria;933262;Desulfosarcina sp. BuS5;Anaerobic alkane degradation;sulfate reduction;;;;;
Bacteria;980445;Desulfoglaeba alkanexedens ALDC;Anaerobic alkane degradation;sulfate reduction;;;;;
Bacteria;1121392;Desulfatibacillum aliphaticivorans DSM 15576;Anaerobic alkane degradation;sulfate reduction;;;;;
Bacteria;439235;Desulfatibacillum alkenivorans AK-01;Anaerobic alkane degradation;sulfate reduction;Syntrophy;;;;
Bacteria;1380771;Smithella sp. ME-1;Anaerobic alkane degradation;Syntrophy;;;;;
Bacteria;1499107;Smithella sp. SCADC;Anaerobic alkane degradation;Syntrophy;;;;;
Bacteria;96561;Desulfococcus oleovorans Hxd3;Anaerobic alkane degradation*carboxylation;sulfate reduction;;;;;
Bacteria;198107;Azoarcus sp. CIB;anaerobic aromatic hydrocarbon degradation;Denitrification;Nitrogen fixation;;;;
Bacteria;76114;Aromatoleum aromaticum EbN1;anaerobic aromatic hydrocarbon degradation;Denitrification;;;;;
Bacteria;34027;Azoarcus tolulyticus ATCC 51758;anaerobic aromatic hydrocarbon degradation;Denitrification;Nitrogen fixation;Syntrophy;;;
Bacteria;1261621;Azoarcus toluclasticus ATCC 700605;anaerobic aromatic hydrocarbon degradation;Denitrification;Nitrogen fixation;;;;
Bacteria;651182;Desulfobacula toluolica Tol2;anaerobic aromatic hydrocarbon degradation;sulfate reduction;H2 oxidation;;;;
Bacteria;88274;delta proteobacterium Naph S2;anaerobic aromatic hydrocarbon degradation;sulfate reduction;;;;;
Bacteria;44139;Thauera aromatica K172;anaerobic aromatic hydrocarbon degradation;Denitrification;*seqeunce may not be available yet?? SAMN02370758;;;;
Bacteria;269799;Geobacter metallireducens GS-15;anaerobic aromatic hydrocarbon degradation;Fe reduction;Nitrogen fixation;Uranium reduction;Syntrophy;DNRA;
Bacteria;1340425;Geobacter anodireducens SD-1;Fe reduction;;;;;;
Bacteria;404380;Geobacter bemidjiensis Bem, DSM 16622;Fe reduction;Nitrogen fixation;;;;;
Bacteria;1304887;Geobacter bremensis R1;Fe reduction;Nitrogen fixation;H2 oxidation;;;;
Bacteria;398767;Geobacter lovleyi SZ;Fe reduction;Nitrogen fixation;arsenate reduction;Dehalogenation;uranium reduction;DNRA;H2 oxidation
Bacteria;345632;Geobacter pickeringii G13;Fe reduction;Nitrogen fixation;uranium reduction;;;;
Bacteria;1510391;Geobacter soli GSS01;Fe reduction;;;;;;
Bacteria;316067;Geobacter daltonii FRC-32;Fe reduction;Uranium reduction;Nitrogen fixation;anaerobic aromatic hydrocarbon degradation;;;
Bacteria;243231;Geobacter sulfurreducens PCA;Fe reduction;Nitrogen fixation;Syntrophy;Uranium reduction;H2 oxidation;;
Bacteria;351605;Geobacter uraniireducens Rf4;Fe reduction;Uranium reduction;Nitrogen fixation;arsenate reduction;H2 oxidation;;
Bacteria;207559;Desulfovibrio alaskensis G20;sulfate reduction;Syntrophy;Uranium reduction;H2 oxidation;;;
Bacteria;882;Desulfovibrio vulgaris vulgaris Hildenborough;sulfate reduction;Syntrophy;Uranium reduction;H2 oxidation;DNRA;Nitrogen fixation;
Bacteria;471871;Clostridium sporogenes ATCC 15579;Syntrophy;H2 oxidation;;;;;
Bacteria;335541;Syntrophomonas wolfei goettingen dsm 2245b;Syntrophy;;;;;;
Bacteria;643648;Syntrophothermus lipocalidus DSM 12680;Syntrophy;H2 oxidation;;;;;
Bacteria;370438;Pelotomaculum thermopropionicum SI;Syntrophy;H2 oxidation;;;;;
Bacteria;56780;Syntrophus aciditrophicus SB;Syntrophy;;;;;;
Bacteria;335543;Syntrophobacter fumaroxidans MPOB;Syntrophy;sulfate reduction;H2 oxidation;;;;
Bacteria;572547;Aminobacterium colombiense DSM 12261;Syntrophy;;;;;;
Bacteria;584708;Aminomonas paucivorans GLU-3 DSM 6589;Syntrophy;;;;;;
Bacteria;459349;Candidatus Cloacamonas acidaminovorans;Syntrophy;;;;;;
Archaea;990316;Methanothrix soehngenii GP-6;Methanogenesis from acetate;Nitrogen fixation;;;;;
Archaea;1110509;Methanosaeta harundinacea 6Ac;Methanogenesis from acetate;;;;;;
Archaea;349307;Methanothrix thermoacetophila PT;Methanogenesis from acetate;;;;;;
Archaea;1041930;Methanocella conradii HZ254;Methanogenesis from hydrogen;;;;;;
Archaea;304371;Methanocella paludicola SANAE;Methanogenesis from hydrogen;;;;;;
Archaea;351160;Methanocella arvoryzae MRE50;Methanogenesis from hydrogen;;Nitrogen fixation;;;;
Archaea;1201294;Methanoculleus bourgensis MS2;Methanogenesis from hydrogen;;;;;;
Archaea;368407;Methanoculleus marisnigri JR1;Methanogenesis from hydrogen;;;;;;
Archaea;937775;Methanoplanus Limicola DSM 2279;Methanogenesis from hydrogen;;;;;;
Archaea;882090;Methanolinea tarda NOBI-1;Methanogenesis from hydrogen;;;;;;
Archaea;456442;Methanoregula boonei 6A8;Methanogenesis from hydrogen;;Nitrogen fixation;;;;
Archaea;323259;Methanospirillum hungatei JF-1;Methanogenesis from hydrogen;;Nitrogen fixation;;;;
Archaea;410358;Methanocorpusculum labreanum Z;Methanogenesis from hydrogen;;;;;;
Archaea;644295;Methanohalobium evestigatum Z-7303;methylotrophic methanogenesis;;;;;;
Archaea;679901;Methanosalsum zhilinae DSM 4017;methylotrophic methanogenesis;;;;;;
Archaea;547558;Methanohalophilus mahii DSM 5219;methylotrophic methanogenesis;;;;;;
Archaea;188937;Methanosarcina acetivorans C2A;methylotrophic methanogenesis;Methanogenesis from acetate;Nitrogen fixation;;;;
Archaea;192952;Methanosarcina mazei Go1;Methanogenesis from hydrogen;methylotrophic methanogenesis;Methanogenesis from acetate;Nitrogen fixation;;;
Archaea;269797;Methanosarcina barkeri str. Fusaro;Methanogenesis from hydrogen;methylotrophic methanogenesis;Methanogenesis from acetate;Nitrogen fixation;;;
Archaea;79929;Methanothermobacter marburgensis str. Marburg;Methanogenesis from hydrogen;;;;;;
Archaea;187420;Methanothermobacter thermautotrophicus str. Delta H;Methanogenesis from hydrogen;Nitrogen fixation;;;;;
Archaea;634498;Methanobrevibacter ruminantium M1;Methanogenesis from hydrogen;;;;;;
Archaea;420247;Methanobrevibacter smithii PS, ATCC 35061;Methanogenesis from hydrogen;;;;;;
Archaea;877455;Methanobacterium sp. AL-21;Methanogenesis from hydrogen;Nitrogen fixation;;;;;
Archaea;523846;Methanothermus fervidus DSM 2088;Methanogenesis from hydrogen;Nitrogen fixation;;;;;
Archaea;190192;Methanopyrus kandleri AV19;Methanogenesis from hydrogen;;;;;;
Archaea;243232;Methanocaldococcus jannaschii DSM 2661;Methanogenesis from hydrogen;;;;;;
Archaea;644281;Methanocaldococcus sp. FS406-22;Methanogenesis from hydrogen;Nitrogen fixation;;;;;
Archaea;579137;Methanocaldococcus vulcanius M7 DSM 12094;Methanogenesis from hydrogen;nitrogen fixation;;;;;
Archaea;573063;Methanocaldococcus infernus ME;Methanogenesis from hydrogen;nitrogen fixation;;;;;
Archaea;402880;Methanococcus maripaludis C5;Methanogenesis from hydrogen;Nitrogen fixation;;;;;
Archaea;406327;Methanococcus vannielii SB;Methanogenesis from hydrogen;nitrogen fixation;;;;;
Archaea;456320;Methanococcus voltae A3;Methanogenesis from hydrogen;nitrogen fixation;;;;;
Archaea;419665;Methanococcus aeolicus Nankai-3;Methanogenesis from hydrogen;Nitrogen fixation;;;;;
Archaea;523845;Methanothermococcus thermolithotrophicus DSM 2095;Methanogenesis from hydrogen;Nitrogen fixation;;;;;
Archaea;523844;Methanosarcina thermophila TM1;methylotrophic methanogenesis;Methanogenesis from acetate;nitrogen fixation;;;;
Bacteria;675511;Methylomicrobium buryatense 5G;methanotroph;nitrogen fixation;;;;;
Bacteria;1224744;Methylococcus capsulatus Texas, ATCC 19069;methanotroph;nitrogen fixation;H2 oxidation;;;;
Bacteria;1156937;Methylacidiphilum fumariolicum SolV;methanotroph;nitrogen fixation;H2 oxidation;;;;
Bacteria;481448;Methylacidiphilum infernorum V4;methanotroph;nitrogen fixation;H2 oxidation;;;;
Bacteria;857087;Methylomonas methanica MC09;methanotroph;nitrogen fixation;H2 oxidation;;;;
Bacteria;107637;Methylomonas sp. LW13;methanotroph;Nitrogen fixation;;;;;
Bacteria;39770;Methylobacter whittenburyi ACM 3310;methanotroph;nitrogen fixation;;;;;
Bacteria;243233;Methylococcus capsulatus Bath;methanotroph;nitrogen fixation;H2 oxidation;;;;
Bacteria;39774;Methylomicrobium agile ATCC 35068;methanotroph;;;;;;
Bacteria;1091494;Methylomicrobium alcaliphilum 20Z;methanotroph;;;;;;
Bacteria;269709;Methylomicrobium kenyense AMO1;methanotroph;nitrogen fixation;;;;;
Bacteria;686340;Methylomicrobium album BG8;methanotroph;Denitrification;;;;;
Bacteria;675524;Methylocaldum szegediense O-12;methanotroph;nitrogen fixation;H2 oxidation;;;;
Bacteria;1760988;Methylocaldum ishizawai 175;methanotroph;nitrogen fixation;;;;;
Bacteria;595536;Methylosinus trichosporium OB3b;methanotroph;nitrogen fixation;H2 oxidation;;;;
Bacteria;136993;Methylosinus sp. LW4;methanotroph;nitrogen fixation;H2 oxidation;;;;
Bacteria;107636;Methylosinus sp. PW1;methanotroph;nitrogen fixation;;;;;
Bacteria;1132444;Methylocystis rosea SV97T;methanotroph;nitrogen fixation;;;;;
Bacteria;107633;Methylocystis sp. LW5;methanotroph;nitrogen fixation;H2 oxidation;;;;
Bacteria;743836;Methylocystis sp. SB2;methanotroph;nitrogen fixation;;;;;
Bacteria;187303;Methylocystis sp. SC2;methanotroph;nitrogen fixation;Denitrification;H2 oxidation;;;
Bacteria;622637;Methylocystis sp. Rockwell, ATCC 49242;methanotroph;nitrogen fixation;;;;;
Bacteria;1134912;Methylocystis parvus OBBP;methanotroph;nitrogen fixation;H2 oxidation;;;;
Bacteria;395965;Methylocella silvestris BL2, DSM 15510;methanotroph;nitrogen fixation;H2 oxidation;;;;
Bacteria;82367;Paracoccus pantotrophus DSM 11073;sulfide oxidation;;;;;;
Bacteria;290512;Prosthecochloris aestuarii SK413 DSM 271;sulfide oxidation;anoxygenic phototrophy;Nitrogen fixation;H2 oxidation;;;
Bacteria;377431;Chlorobium ferroxidans DSM 13031;anoxygenic phototrophy;Fe oxidation;nitrogen fixation;H2 oxidation;;;
Bacteria;290315;Chlorobium limicola DSM 245;sulfide oxidation;anoxygenic phototrophy;Nitrogen fixation;H2 oxidation;;;
Bacteria;290317;Chlorobium phaeobacteroides DSM 266;sulfide oxidation;anoxygenic phototrophy;Nitrogen fixation;H2 oxidation;;;
Bacteria;319225;Pelodictyon luteolum DSM 273;sulfide oxidation;anoxygenic phototrophy;nitrogen fixation;H2 oxidation;;;
Bacteria;35806;Rhodovulum sulfidophilum DSM 2351;sulfide oxidation;anoxygenic phototrophy;Nitrogen fixation;;;;
Bacteria;639283;Starkeya novella DSM 506;sulfide oxidation;;;;*actual substrate thiosulfate;;
Bacteria;46234;Anabaena sp. 90;oxygenic phototrophy;nitrogen fixation;H2 oxidation;;;;
Bacteria;240292;Trichormus variabilis ATCC 29413;oxygenic phototrophy;nitrogen fixation;H2 oxidation;;;;
Bacteria;696747;Arthrospira platensis NIES-39;oxygenic phototrophy;;;;;;
Bacteria;1738638;Arthrospira platensis YZ;oxygenic phototrophy;;;;;;
Bacteria;1337936;Calothrix sp. 336/3;oxygenic phototrophy;nitrogen fixation;;;;;
Bacteria;1170562;Calothrix sp. PCC 6303;oxygenic phototrophy;nitrogen fixation;;;;;
Bacteria;99598;Calothrix sp. PCC 7507;oxygenic phototrophy;nitrogen fixation;;;;;
Bacteria;1453429;Candidatus Atelocyanobacterium thalassa ALOHA;oxygenic phototrophy;nitrogen fixation;;;;;
Bacteria;1173020;Chamaesiphon minutus PCC 6605;oxygenic phototrophy;;;;;;
Bacteria;251229;Chroococcidiopsis thermalis PCC 7203;oxygenic phototrophy;nitrogen fixation;;;;;
Bacteria;1173022;Crinalium epipsammum PCC 9333;oxygenic phototrophy;;;;;;
Bacteria;755178;Cyanobacterium aponinum PCC 10605;oxygenic phototrophy;;;;;;
Bacteria;292563;Cyanobacterium stanieri PCC 7202;oxygenic phototrophy;;;;;;
Bacteria;292564;Cyanobium gracile PCC 6307;oxygenic phototrophy;;;;;;
Bacteria;43989;Cyanothece sp. BH68, ATCC 51142;oxygenic phototrophy;nitrogen fixation;H2 oxidation;;;;
Bacteria;65393;Cyanothece sp. PCC 7424;oxygenic phototrophy;nitrogen fixation;H2 oxidation;;;;
Bacteria;395961;Cyanothece sp. PCC 7425;oxygenic phototrophy;nitrogen fixation;;;;;
Bacteria;497965;Cyanothece sp. PCC 7822;oxygenic phototrophy;nitrogen fixation;H2 oxidation;;;;
Bacteria;41431;Cyanothece sp. PCC 8801;oxygenic phototrophy;nitrogen fixation;;;;;
Bacteria;395962;Cyanothece sp. PCC 8802;oxygenic phototrophy;nitrogen fixation;;;;;
Bacteria;56107;Cylindrospermum stagnale PCC 7417;oxygenic phototrophy;nitrogen fixation;;;;;
Bacteria;13035;Dactylococcopsis salina PCC 8305;oxygenic phototrophy;;;;;;
Bacteria;1752063;Fischerella sp. NIES-3754;oxygenic phototrophy;nitrogen fixation;;;;;
Bacteria;1173025;Geitlerinema sp. PCC 7407;oxygenic phototrophy;;;;;;
Bacteria;1617448;Geminocystis sp. NIES-3709;oxygenic phototrophy;;;;;;
Bacteria;1183438;Gloeobacter kilaueensis JS1;oxygenic phototrophy;;;;;;
Bacteria;251221;Gloeobacter violaceus PCC 7421;oxygenic phototrophy;;;;;;
Bacteria;1173026;Gloeocapsa sp. PCC 7428;oxygenic phototrophy;;;;;;
Bacteria;65093;Halothece sp. PCC 7418;oxygenic phototrophy;nitrogen fixation;;;;;
Bacteria;1752064;Leptolyngbya sp. NIES-3755;oxygenic phototrophy;;;;;;
Bacteria;1080068;Leptolyngbya sp. O-77;oxygenic phototrophy;nitrogen fixation;;;;;
Bacteria;111781;Leptolyngbya sp. PCC 7376;oxygenic phototrophy;;;;;;
Bacteria;1173027;Microcoleus sp. PCC 7113;oxygenic phototrophy;nitrogen fixation;;;;;
Bacteria;1641812;Microcystis aeruginosa NIES-2549;oxygenic phototrophy;;;;;;
Bacteria;449447;Microcystis aeruginosa NIES-843;oxygenic phototrophy;;;;;;
Bacteria;1638788;Microcystis panniformis FACHB-1757;oxygenic phototrophy;;;;;;
Bacteria;313624;Nodularia spumigena CCY9414;oxygenic phototrophy;nitrogen fixation;H2 oxidation;;;;
Bacteria;551115;Nostoc azollae 0708;oxygenic phototrophy;nitrogen fixation;;;;;
Bacteria;224013;Nostoc piscinale CENA21;oxygenic phototrophy;nitrogen fixation;;;;;
Bacteria;63737;Nostoc punctiforme PCC 73102;oxygenic phototrophy;nitrogen fixation;H2 oxidation;;;;
Bacteria;1751286;Nostoc sp. NIES-3756;oxygenic phototrophy;nitrogen fixation;;;;;
Bacteria;317936;Nostoc sp. PCC 7107;oxygenic phototrophy;nitrogen fixation;H2 oxidation;;;;
Bacteria;103690;Nostoc sp. PCC 7120;oxygenic phototrophy;nitrogen fixation;H2 oxidation;;;;
Bacteria;28072;Nostoc sp. PCC 7524;oxygenic phototrophy;nitrogen fixation;H2 oxidation;;;;
Bacteria;56110;Oscillatoria acuminata PCC 6304;oxygenic phototrophy;;;;;;
Bacteria;179408;Oscillatoria nigro-viridis PCC 7112;oxygenic phototrophy;;;;;;
Bacteria;118163;Pleurocapsa sp. PCC 7327;oxygenic phototrophy;nitrogen fixation;;;;;
Bacteria;167539;Prochlorococcus marinus marinus CCMP1375;oxygenic phototrophy;;;;;;
Bacteria;74547;Prochlorococcus marinus MIT9313;oxygenic phototrophy;;;;;;
Bacteria;59919;Prochlorococcus marinus pastoris CCMP 1986;oxygenic phototrophy;;;;;;
Bacteria;146891;Prochlorococcus sp. AS9601;oxygenic phototrophy;;;;;;
Bacteria;1501268;Prochlorococcus sp. MIT0604;oxygenic phototrophy;;;;;;
Bacteria;1501269;Prochlorococcus sp. MIT0801;oxygenic phototrophy;;;;;;
Bacteria;1501269;Prochlorococcus sp. MIT9211;oxygenic phototrophy;;;;;;
Bacteria;1501269;Prochlorococcus sp. MIT9215;oxygenic phototrophy;;;;;;
Bacteria;1501269;Prochlorococcus sp. MIT9301;oxygenic phototrophy;;;;;;
Bacteria;1501268;Prochlorococcus sp. MIT9303;oxygenic phototrophy;;;;;;
Bacteria;1501269;Prochlorococcus sp. MIT9515;oxygenic phototrophy;;;;;;
Bacteria;167555;Prochlorococcus sp. NATL1A;oxygenic phototrophy;;;;;;
Bacteria;59920;Prochlorococcus sp. NATL2A;oxygenic phototrophy;;;;;;
Bacteria;82654;Pseudanabaena sp. PCC 7367;oxygenic phototrophy;;;;;;
Bacteria;373994;Rivularia sp. PCC 7116;oxygenic phototrophy;nitrogen fixation;H2 oxidation;;;;
Bacteria;111780;Stanieria cyanosphaera PCC 7437;oxygenic phototrophy;;;;;;
Bacteria;269084;Synechococcus elongatus PCC 6301;oxygenic phototrophy;;;;;;
Bacteria;1140;Synechococcus elongatus PCC 7942;oxygenic phototrophy;;;;;;
Bacteria;64471;Synechococcus sp. CC9311;oxygenic phototrophy;;;;;;
Bacteria;110662;Synechococcus sp. CC9605;oxygenic phototrophy;;;;;;
Bacteria;316279;Synechococcus sp. CC9902;oxygenic phototrophy;;;;;;
Bacteria;321332;Synechococcus sp. JA-2-3B'a(2-13);oxygenic phototrophy;nitrogen fixation;;;;;
Bacteria;321327;Synechococcus sp. JA-3-3Ab;oxygenic phototrophy;nitrogen fixation;;;;;
Bacteria;1280380;Synechococcus sp. KORDI-100;oxygenic phototrophy;;;;;;
Bacteria;585423;Synechococcus sp. KORDI-49;oxygenic phototrophy;;;;;;
Bacteria;585425;Synechococcus sp. KORDI-52;oxygenic phototrophy;;;;;;
Bacteria;195253;Synechococcus sp. PCC 6312;oxygenic phototrophy;;;;;;
Bacteria;32049;Synechococcus sp. PCC 7002;oxygenic phototrophy;;;;;;
Bacteria;1173263;Synechococcus sp. PCC 7502;oxygenic phototrophy;;;;;;
Bacteria;316278;Synechococcus sp. RCC307;oxygenic phototrophy;;;;;;
Bacteria;1350461;Synechococcus sp. UTEX 2973;oxygenic phototrophy;;;;;;
Bacteria;32052;Synechococcus sp. WH 8020;oxygenic phototrophy;;;;;;
Bacteria;29410;Synechococcus sp. WH 8103 WH8103;oxygenic phototrophy;;;;;;
Bacteria;166314;Synechococcus sp. WH 8109;oxygenic phototrophy;;;;;;
Bacteria;32051;Synechococcus sp. WH7803;oxygenic phototrophy;;;;;;
Bacteria;84588;Synechococcus sp. WH8102;oxygenic phototrophy;;;;;;
Bacteria;1148;Synechocystis sp. GT-S, PCC 6803;oxygenic phototrophy;;;;;;
Bacteria;197221;Thermosynechococcus elongatus BP-1;oxygenic phototrophy;;;;;;
Bacteria;1394889;Thermosynechococcus sp. NK55a;oxygenic phototrophy;;;;;;
Bacteria;203124;Trichodesmium erythraeum IMS101;oxygenic phototrophy;nitrogen fixation;H2 oxidation;;;;
Archaea;387631;Archaeoglobus sulfaticallidus PM70-1, DSM 19444 (Asulf_version1);sulfate reduction;H2 oxidation;;;;;
Archaea;1344584;Archaeoglobus fulgidus 7324, DSM 8774;sulfate reduction;H2 oxidation;;;;;
Archaea;224325;Archaeoglobus fulgidus VC-16, DSM 4304;sulfate reduction;H2 oxidation;;;;;
Archaea;397948;Caldivirga maquilingensis IC-167;sulfate reduction;;;;;;
Bacteria;617001;Desulfonatronum thiosulfatophilum ASO4-2;sulfate reduction;;;;;;
Bacteria;698827;Desulfonatronovibrio magnus AHT22;sulfate reduction;;;;;;
Bacteria;1121398;Desulfobacter vibrioformis DSM 8776;sulfate reduction;;;;;;
Bacteria;859314;Desulfonema limicola Jadebusen, DSM 2076;sulfate reduction;;;;;;
Bacteria;622671;Desulfobotulus alkaliphilus ASO4-4;sulfate reduction;;;;;;
Bacteria;1121428;Desulfotomaculum hydrothermale Lam5;sulfate reduction;;;;;;
Bacteria;1121399;Desulfobacterium anilini DSM 4660;sulfate reduction;;;;;;
Bacteria;1121396;Desulfobacter curvatus DSM 3379;sulfate reduction;H2 oxidation;nitrogen fixation;;;;
Bacteria;573059;Desulfovibrio vulgaris RCH1;sulfate reduction;H2 oxidation;Nitrogen fixation;;;;
Bacteria;696281;Desulfotomaculum ruminis DL, DSM 2154;sulfate reduction;Nitrogen fixation;;;;;
Bacteria;485915;Desulfohalobium retbaense HR100, DSM 5692;sulfate reduction;H2 oxidation;;;;;
Bacteria;525897;Desulfomicrobium baculatum X, DSM 4028;sulfate reduction;H2 oxidation;;;;;
Bacteria;1123373;Thermodesulfobacterium thermophilum DSM 1276;sulfate reduction;;;;;;
Bacteria;289376;Thermodesulfovibrio yellowstonii DSM 11347;sulfate reduction;;;;;;
Bacteria;879212;Desulfobacter postgatei 2ac9;sulfate reduction;H2 oxidation;;;;;
Bacteria;1121413;Desulfonatronovibrio hydrogenovorans DSM 9292;sulfate reduction;H2 oxidation;;;;;
Bacteria;44742;Desulfovibrio fairfieldensis CCUG 45958;sulfate reduction;;;;;;
Bacteria;1123372;Thermodesulfobacterium hveragerdense DSM 12571;sulfate reduction;H2 oxidation;;;;;
Bacteria;643562;Desulfovibrio aespoeensis Aspo-2, DSM 10631;sulfate reduction;H2 oxidation;;;;;
Bacteria;1265505;Desulfospira joergensenii DSM 10085;sulfate reduction;H2 oxidation;;;;;
Bacteria;696369;Desulfotomaculum nigrificans DSM 574;sulfate reduction;nitrogen fixation;;;;;
Bacteria;177437;Desulfobacterium autotrophicum HRM2, DSM 3382;sulfate reduction;H2 oxidation;;;;;
Bacteria;1286635;Desulfotignum phosphitoxidans FiPS-3, DSM 13687;sulfate reduction;H2 oxidation;anaerobic aromatic hydrocarbon degradation;;;;
Bacteria;90732;Desulfobacula phenolica DSM 3384;sulfate reduction;anaerobic aromatic hydrocarbon degradation;;;;;
Bacteria;1121405;Desulfococcus multivorans DSM 2059;sulfate reduction;;;;;;
Bacteria;760568;Desulfotomaculum kuznetsovii 17, DSM 6115;sulfate reduction;;;;;;
Bacteria;391774;Desulfovibrio vulgaris vulgaris DP4;sulfate reduction;Nitrogen fixation;H2 oxidation;;;;
Bacteria;1716143;Desulfovibrio indicus J2;sulfate reduction;;;;;;
Bacteria;795359;Thermodesulfobacterium geofontis OPF15;sulfate reduction;H2 oxidation;;;;;
Bacteria;161156;Thermodesulfobacterium hydrogeniphilum DSM 14290;sulfate reduction;H2 oxidation;;;;;
Bacteria;1322246;Pseudodesulfovibrio piezophilus C1TLV30, DSM 21447;sulfate reduction;H2 oxidation;;;;;
Bacteria;526222;Desulfovibrio salexigens DSM 2638;sulfate reduction;H2 oxidation;nitrogen fixation;;;;
Bacteria;349161;Desulfotomaculum reducens MI-1;sulfate reduction;nitrogen fixation;uranium reduction;Fe reduction;;;
Bacteria;573370;Desulfovibrio magneticus RS-1;sulfate reduction;H2 oxidation;;;;;
Bacteria;1304886;Desulfotignum balticum DSM 7044;sulfate reduction;H2 oxidation;;;;;
Bacteria;1121401;Desulfobotulus sapovorans DSM 2055;sulfate reduction;;;;;;
Bacteria;935942;Desulfonatronum lacustre Z-7951, DSM 10312;sulfate reduction;H2 oxidation;;;;;
Bacteria;667014;Thermodesulfatator indicus CIR29812, DSM 15286;sulfate reduction;H2 oxidation;;;;;
Bacteria;888061;Desulfomicrobium orale DSM 12838;sulfate reduction;;;;;;
Bacteria;1121421;Desulfotomaculum aeronauticum DSM 10349;sulfate reduction;;;;;;
Bacteria;1121448;Desulfovibrio gigas DSM 1382, ATCC 19364;sulfate reduction;Nitrogen fixation;DNRA;H2 oxidation;;;
Bacteria;289377;Thermodesulfobacterium commune DSM 2178;sulfate reduction;;;;;;
Bacteria;883;Desulfovibrio vulgaris Miyazaki F;sulfate reduction;H2 oxidation;Nitrogen fixation;;;;
Bacteria;690850;Desulfovibrio africanus Walvis Bay;sulfate reduction;H2 oxidation;nitrogen fixation;;;;
Bacteria;485916;Desulfotomaculum acetoxidans 5575, DSM 771;sulfate reduction;;;;;;
Bacteria;1121400;Desulfobacterium vacuolatum DSM 3385;sulfate reduction;;;;;;
Bacteria;52560;Desulfomicrobium apsheronum DSM 5918;sulfate reduction;;;;;;
Bacteria;868595;Desulfotomaculum carboxydivorans CO-1-SRB, DSM 14880;sulfate reduction;nitrogen fixation;;;;;
Bacteria;641491;Desulfovibrio desulfuricans ND132;sulfate reduction;;;;;;
Bacteria;455488;Anaeromyxobacter dehalogenans 2CP-1;Arsenate reduction;Fe reduction;Dehalogenation;Uranium reduction;DNRA;H2 oxidation;
Bacteria;94122;Shewanella sp. ANA-3;Arsenate reduction;Fe reduction;;;;;
Bacteria;118005;Chrysiogenes arsenatis DSM 11915;Arsenate reduction;DNRA;nitrogen fixation;H2 oxidation;;;
Bacteria;318161;Shewanella denitrificans OS217;Denitrification;DNRA;;;;;
Bacteria;325240;Shewanella baltica OS155;Denitrification;Fe reduction;H2 oxidation;DNRA;;;
Archaea;178306;Pyrobaculum aerophilum IM2;Arsenate reduction;Fe reduction;Denitrification;;;;
Bacteria;1349789;Sulfurospirillum arsenophilum NBRC 109478;Arsenate reduction;DNRA;nitrogen fixation;;;;
Bacteria;871963;Desulfitobacterium dichloroeliminans LMG P-21439;Dehalogenation;H2 oxidation;;;;;
Bacteria;272564;Desulfitobacterium hafniense DCB-2;Arsenate reduction;Dehalogenation;Nitrogen fixation;Fe reduction;Uranium reduction;DNRA;H2 oxidation
Bacteria;1121395;Desulfitobacterium chlororespirans DSM 11544;Dehalogenation;;;;;;
Bacteria;760154;Sulfurospirillum barnesii SES-3;Arsenate reduction;Fe reduction;selenate reduction;DNRA;H2 oxidation;nitrogen fixation;
Bacteria;1150621;Sulfurospirillum multivorans DSM 12446;Arsenate reduction;Dehalogenation;Nitrogen fixation;H2 oxidation;DNRA;;
Bacteria;639282;Deferribacter desulfuricans SSM1, DSM 14783;Arsenate reduction;;;;;;
Bacteria;756499;Desulfitobacterium dehalogenans JW/IU-DC1, ATCC 51507;Arsenate reduction;Dehalogenation;H2 oxidation;;;;
Bacteria;525898;Sulfurospirillum deleyianum 5175, DSM 6946;Arsenate reduction;DNRA;H2 oxidation;;;;
Bacteria;1321606;Bacillus selenatarsenatis SF-1;Arsenate reduction;selenate reduction;DNRA;;;;
Bacteria;321763;Halarsenatibacter silvermanii SLAS-1;Arsenate reduction;Sulfide oxidation;Fe reduction;;;;
Bacteria;178606;Leptospirillum ferriphilum DSM 14647;Fe oxidation;;;;;;
Bacteria;324602;Chloroflexus auranticus J-10-fl;H2 oxidation;sulfide oxidation;anoxygenic phototrophy;;;;
Bacteria;177439;Desulfotalea psychrophila LSv54;sulfate reduction;Fe reduction;H2 oxidation;;;;
Bacteria;338963;Pelobacter carbinolicus bd1 grabd1;Syntrophy;Fe reduction;nitrogen fixation;;;;
Bacteria;1122946;Pelobacter seleniigenes DSM 18267;selenate reduction;Fe reduction;DNRA;nitrogen fixation;H2 oxidation;;
Bacteria;1111735;Sedimenticola selenatireducens DSM 17993;selenate reduction;denitrification;H2 oxidation;Sulfide oxidation;;;
Bacteria;1078050;Seleniivibrio woodruffii S4;selenate reduction;arsenate reduction;nitrogen fixation;;;;
Archaea;340102;Pyrobaculum arsenaticum PZ6, DSM 13514;selenate reduction;H2 oxidation;arsenate reduction;Fe reduction;;;
Bacteria;142842;Selenihalanaerobacter shriftii ATCC BAA-73;selenate reduction;arsenate reduction;;;;;
Bacteria;439292;Bacillus selenitireducens MLS10;selenate reduction;arsenate reduction;DNRA;;;;
Bacteria;1485544;Ferriphaselus sp. R-1;Fe oxidation;;;;;;
Bacteria;1188319;Ferriphaselus amnicola OYT1;Fe oxidation;nitrogen fixation;;;;;
Bacteria;580332;Sideroxydans lithotrophicus ES-1;Fe oxidation;nitrogen fixation;H2 oxidation;;;;
Bacteria;395494;Gallionella capsiferriformans ES-2;Fe oxidation;;;;;;
Bacteria;1188231;Mariprofundus ferrooxydans M34;Fe oxidation;nitrogen fixation;;;;;
Bacteria;314345;Mariprofundus ferrooxydans PV-1;Fe oxidation;;;;;;
Bacteria;371731;Rhodobacter sp. SW2;Fe oxidation;anoxygenic phototrophy;H2 oxidation;nitrogen fixation;;;
Bacteria;380394;Acidithiobacillus ferrooxidans ATCC 53993;Fe oxidation;Fe reduction;Nitrogen fixation;sulfide oxidation;H2 oxidation;;
Bacteria;743299;Acidithiobacillus ferrivorans SS3;Fe oxidation;Fe reduction;Nitrogen fixation;sulfide oxidation;H2 oxidation;;
Archaea;74969;Ferroplasma acidiphilum Y;Fe oxidation;Fe reduction;;;;;
Archaea;333146;Ferroplasma acidarmanus Fer1;Fe oxidation;Fe reduction;;;;;
Archaea;523847;Sulfolobus metallicus DSM 6482, JCM 9184;Fe oxidation;sulfide oxidation;;;;;
Bacteria;657324;Butyrivibrio fibrisolvens 16/4;Cellulose degradation;;;;;;
Bacteria;59374;Fibrobacter succinogenes S85;Cellulose degradation;;;;;;
Bacteria;244366;Klebsiella variicola HKUOPLA;Cellulose degradation;;;;;;
Bacteria;697329;Ruminococcus albus 7;Cellulose degradation;Syntrophy;;;;;
Bacteria;1336236;Ruminococcus flavefaciens ATCC 19208;Cellulose degradation;Syntrophy;;;;;
Bacteria;42253;Nitrospira moscoviensis NSP M-1;NOB;H2 oxidation;;;;;
Bacteria;323097;Nitrobacter hamburgensis X14;NOB;;;;;;
Bacteria;1129897;Nitrolancea hollandica Lb;NOB;;;;;;
Bacteria;1266370;Nitrospina gracilis 3/211;NOB;;;;;;
Archaea;1715806;Methanosarcina flavescens EO3.2;methanogenesis from H2;Methanogenesis from acetate;;;;;
Archaea;1434120;Methanosarcina siciliae T4/M;methylotrophic methanogenesis;;;;;;
Archaea;1434123;Methanosarcina vacuolata Z-761;methanogenesis from H2;Methanogenesis from acetate;;;;;
Archaea;1434110;Methanosarcina horonobensis HB-1;Methanogenesis from acetate;methylotrophic methanogenesis;;;;;
Archaea;1036677;Methanosarcina soligeldi SMA-21;methanogenesis from H2;Methanogenesis from acetate;;;;;
Bacteria;73030;Dechloromonas agitata CKB;Dehalogenation;sulfide oxidation;Fe oxidation;;;;
Bacteria;216389;Dehalococcoides mccartyi BAV1;Dehalogenation;H2 oxidation;;;;;
Bacteria;243164;Dehalococcoides mccartyi 195;Dehalogenation;H2 oxidation;;;;;
Bacteria;269798;Cytophaga hutchinsonii ATCC 33406;Cellulose degradation;;;;;;
Bacteria;203122;Saccharophagus degradans 2-40;Cellulose degradation;;;;;;
Bacteria;269800;Thermobifida fusca YX;Cellulose degradation;;;;;;
Bacteria;572545;Ruminiclostridium thermocellum DSM 2360;Cellulose degradation;;;;;;
Bacteria;392547;Candidatus Brocadia sapporoensis 40 (Draft 1);anammox;;;;;;
Bacteria;340100;Bordetella petrii DSM 12804;dehalogenation;selenate reduction;;;;;
Bacteria;1454056;Citrobacter freundii RLS1;selenate reduction;nitrogen fixation;;;;;
Bacteria;653733;Desulfurispirillum indicum S5 DSM22839;selenate reduction;arsenate reduction;DNRA;;;;
Bacteria;905052;Thauera selenatis AX ATCC 55363;selenate reduction;denitrification;;;;;
Bacteria;157733;Anaerobacillus macyae DSM 16346;arsenate reduction;;;;;;
Bacteria;1121878;Ferrimonas futtsuensis DSM 18154;selenate reduction;arsenate reduction;Fe reduction;;;;
Bacteria;1121879;Ferrimonas kyonanensis DSM 18153;selenate reduction;arsenate reduction;Fe reduction;;;;
Bacteria;380703;Aeromonas hydrophila hydrophila ATCC 7966;selenate reduction;Fe reduction;;;;;
Bacteria;768671;Thiocapsa marina 5811;anoxygenic phototrophy;sulfide oxidation;H2 oxidation;nitrogen fixation;;;
Bacteria;983917;Rubrivivax gelatinosus IL44;anoxygenic phototrophy;nitrogen fixation;H2 oxidation;;;;
Bacteria;765911;Thiocystis violascens 611;anoxygenic phototrophy;sulfide oxidation;nitrogen fixation;;;;
Bacteria;765912;Thioflavicoccus mobilis 8321;anoxygenic phototrophy;sulfide oxidation;nitrogen fixation;;;;